C:\Users\Vlad\DeJava\Desktop\vvss\PizzaShop\src\main\java\pizzashop\model\MenuData.java
C:\Users\Vlad\DeJava\Desktop\vvss\PizzaShop\src\main\java\pizzashop\service\PizzaService.java
C:\Users\Vlad\DeJava\Desktop\vvss\PizzaShop\src\main\java\pizzashop\controller\OrdersGUIController.java
C:\Users\Vlad\DeJava\Desktop\vvss\PizzaShop\src\main\java\pizzashop\gui\KitchenGUI.java
C:\Users\Vlad\DeJava\Desktop\vvss\PizzaShop\src\main\java\pizzashop\repository\PaymentRepository.java
C:\Users\Vlad\DeJava\Desktop\vvss\PizzaShop\src\main\java\pizzashop\repository\MenuRepository.java
C:\Users\Vlad\DeJava\Desktop\vvss\PizzaShop\src\main\java\pizzashop\gui\OrdersGUI.java
C:\Users\Vlad\DeJava\Desktop\vvss\PizzaShop\src\main\java\pizzashop\controller\MainGUIController.java
C:\Users\Vlad\DeJava\Desktop\vvss\PizzaShop\src\main\java\pizzashop\Main.java
C:\Users\Vlad\DeJava\Desktop\vvss\PizzaShop\src\main\java\pizzashop\controller\PaymentOperationInterface.java
C:\Users\Vlad\DeJava\Desktop\vvss\PizzaShop\src\main\java\pizzashop\controller\PaymentController.java
C:\Users\Vlad\DeJava\Desktop\vvss\PizzaShop\src\main\java\pizzashop\model\PaymentType.java
C:\Users\Vlad\DeJava\Desktop\vvss\PizzaShop\src\main\java\pizzashop\model\Payment.java
C:\Users\Vlad\DeJava\Desktop\vvss\PizzaShop\src\main\java\pizzashop\controller\KitchenGUIController.java
